<svg xmlns="http://www.w3.org/2000/svg" xmlns:xlink="http://www.w3.org/1999/xlink" preserveAspectRatio="xMidYMid" width="500" height="500" viewBox="0 0 500 500">
  <defs>
    <style>
      .cls-1 {
        fill: #F5F5F5;
        fill-rule: evenodd;
      }
    </style>
  </defs>
  <path d="M-0.003,500.003 L-0.003,-0.003 L500.003,-0.003 L500.003,500.003 L-0.003,500.003 ZM435.000,55.090 C435.000,9.931 404.293,-6.422 366.792,18.649 L89.117,204.301 C51.614,229.373 51.614,270.413 89.117,295.487 L366.792,481.175 C404.294,506.212 435.000,489.822 435.000,444.735 L435.000,55.090 Z" class="cls-1"/>
</svg>
