<svg xmlns="http://www.w3.org/2000/svg" width="392.565" height="469.273" viewBox="0 0 392.565 469.273">
  <g id="Group_502" data-name="Group 502" transform="translate(-602.563 -179.278)">
    <path class="sec-graph" id="Path_278" data-name="Path 278" d="M13.811,96.883c-18.414,12.3-18.414,32.447,0,44.751l136.344,91.13c18.414,12.288,33.492,4.244,33.492-17.883V23.654c0-22.163-15.077-30.188-33.492-17.884Z" transform="translate(896.345 186.183) rotate(60)" fill="none" stroke="#5b57a6" stroke-width="10"/>
    <path class="sec-graph" id="Path_279" data-name="Path 279" d="M7.421,52.059c-9.895,6.612-9.895,17.435,0,24.047l73.263,48.968c9.895,6.6,18,2.281,18-9.609V12.71c0-11.909-8.1-16.221-18-9.61Z" transform="translate(694.902 531.495) rotate(-150)" fill="none" stroke="#5b57a6" stroke-width="10"/>
    <path class="sec-graph" id="Path_280" data-name="Path 280" d="M7.421,52.059c-9.895,6.612-9.895,17.435,0,24.047l73.263,48.968c9.895,6.6,18,2.281,18-9.609V12.71c0-11.909-8.1-16.221-18-9.61Z" transform="matrix(0.259, 0.966, -0.966, 0.259, 783.478, 513.911)" fill="none" stroke="#5b57a6" stroke-width="10"/>
    <path class="sec-graph" id="Path_281" data-name="Path 281" d="M4.608,32.324c-6.144,4.105-6.144,10.826,0,14.931L50.1,77.66c6.144,4.1,11.174,1.416,11.174-5.967V7.892C61.272.5,56.242-2.18,50.1,1.925Z" transform="matrix(0.966, -0.259, 0.259, 0.966, 798.973, 492.348)" fill="none" stroke="#5b57a6" stroke-width="10"/>
  </g>
</svg>
